{
    "status": true,
    "id_tournament": "3368b3ac8bc3c732af8d0667d9e1fdcf3e5ac0d8",
    "active_menu": "overview",
    "menu": {
        "overview": "/v2/tournament/tournament-solo-habib-84205442/overview",
        "rules": "/v2/tournament/tournament-solo-habib-84205442/rules",
        "participant": "/v2/tournament/tournament-solo-habib-84205442/participant",
        "prizes": "/v2/tournament/tournament-solo-habib-84205442/prizes",
        "schedule": "/v2/tournament/tournament-solo-habib-84205442/schedule",
        "bracket": "/v2/tournament/tournament-solo-habib-84205442/bracket"
    },
    "data": {
        "head_info": {
            "id_tournament": "3368b3ac8bc3c732af8d0667d9e1fdcf3e5ac0d8",
            "tournament_name": "Tournament SOlo habib",
            "tournament_date": "2022-01-01 00:00",
            "is_solo_tournament": true,
            "game": {
                "name": "MOBILE LEGEND",
                "logo": "https://cmfg.streamgaming.id/logo/game/z7Y9wv9f_241qmIKnOvUtcqLeQ",
                "url" : "mobile-legend"
            },
            "register_end": "2023-01-01 00:00:00",
            "register_open": "2021-01-01 00:00:00",
            "register_fee": {
                "payment_method": "ticket",
                "value": "3",
                "ticket_id": "7",
                "name": "Ticket Beli Solo"
            },
            "status": {
                "text": "pendaftaran dibuka",
                "number": 1
            },
            "button_join": {
                "status": false,
                "message": "Authentication required",
                "code": 1,
                "rules_button": null
            },
            "background": "https://stream-gaming.s3.ap-southeast-1.amazonaws.com/alpha-dev/public/content/tournament/banner_tournament/607e57896c562.png",
            "total_prizes": "0",
            "live_stream": null
        },
        "side_info": {
            "important": "&lt;p&gt;sd&lt;/p&gt;\r\n",
            "tournament_date": "1970-01-01 07:00:00",
            "spectator": [],
            "game": {
                "name": "MOBILE LEGEND",
                "logo": "https://cmfg.streamgaming.id/logo/game/z7Y9wv9f_241qmIKnOvUtcqLeQ"
            }
        },
        "ticket_info": {
            "status": true,
            "button_status": {
                "status": false,
                "message": "Login required!"
            },
            "data_ticket": {
                "price": 5,
                "ticket_name": "Ticket Beli Solo",
                "tournament_date": "01-01-2022 00:00",
                "game_option": "Solo",
                "game_id": "1086187021",
                "user_detail": null
            }
        },
        "overview": {
            "banner": "https://stream-gaming.s3.ap-southeast-1.amazonaws.com/alpha-dev/public/content/tournament/banner_tournament/607e5787e9a2f.png",
            "match_description": "&lt;p&gt;asd&lt;/p&gt;\r\n",
            "detail": {
                "organizer_name": "STREAM",
                "total_slot": "2/16",
                "tournament_type": "bracket"
            }
        }
    }
}
