{
    "status": true,
    "data": {
        "game": {
            "id_game": "6204",
            "name": "jaskolski.hilbert",
            "logo": "",
            "tutorial": null
        },
        "role": [
            {
                "role_id": 1,
                "role_name": "Gerhard Hane",
                "game_id": "6204"
            }
        ]
    }
}
