{
    "status": true,
    "id_leaderboard": "5f55e24230c07",
    "active_menu": "rules",
    "menu": {
        "overview": "/leaderboard/tes-unit-ticket/overview",
        "rules": "/leaderboard/tes-unit-ticket/rules",
        "participant": "/leaderboard/tes-unit-ticket/participant",
        "prizes": "/leaderboard/tes-unit-ticket/prizes",
        "schedule": "/leaderboard/tes-unit-ticket/schedule",
        "leaderboard": "/leaderboard/tes-unit-ticket/leaderboard"
    },
    "data": {
        "head_info": {
            "id_tournament": "5f55e24230c07",
            "tournament_name": "Tes Unit Ticket",
            "total_prizes": 10000,
            "tournament_date": "2020-09-20 11:00:00",
            "game": {
                "name": "PUBG MOBILE",
                "logo": "http://localhost/cmfg/logo/game/s2qEFWrx3mXRH4GOOroC0JzNBw",
                "url": "pubg-mobile"
            },
            "register_end": "2020-09-19 11:00:00",
            "register_fee": {
                "payment_method": "ticket",
                "value": 2,
                "ticket_id": "5f5304e9530fe",
                "name": "Stream"
            },
            "button_join": {
                "status": false,
                "message": "Authentication required",
                "code": 1
            },
            "background": "bg.jpg",
            "live_stream": "http://yt.com/hehe"
        },
        "rules": {
            "general": "Ini Peraturan Umum",
            "special": "Ini Peraturan Khusus"
        },
        "side_info": {
            "important": "<p>tes</p>\r\n",
            "tournament_date": "2020-09-20 11:00:00",
            "spectator": [],
            "game": {
                "name": "PUBG MOBILE",
                "logo": "http://localhost/cmfg/logo/game/s2qEFWrx3mXRH4GOOroC0JzNBw"
            }
        }
    }
}
