{
    "active_tab": "user",
    "ticket": [
        [
            {
                "type": "claim_today",
                "is_available": true,
                "ticket_id": 6,
                "name": "Tiket Final TikTok",
                "expired": "2021-03-27 15:13",
                "period": "Daily",
                "is_claim": false,
                "claim_until": "2021-03-29 13:22"
            },
            {
                "type": "claim_today",
                "is_available": false,
                "ticket_id": 6,
                "name": "Tiket Final TikTok",
                "expired": "2021-03-27 15:13",
                "period": "Daily",
                "is_claim": false,
                "claim_until": "2021-03-29 13:22"
            },
            {
                "type": "claim_junk",
                "is_available": false,
                "ticket_id": 6,
                "name": "Tiket Final TikTok",
                "expired": "2021-03-27 15:13",
                "period": "Daily",
                "is_claim": false,
                "claim_until": "2021-03-28 00:00"
            },
            {
                "type": "claim_junk",
                "is_available": false,
                "ticket_id": 6,
                "name": "Tiket Final TikTok",
                "expired": "2021-03-27 15:13",
                "period": "Daily",
                "is_claim": false,
                "claim_until": "2021-03-28 00:00"
            }
        ]
    ]
}




