{
    "status": true,
    "active_menu": "statistic",
    "menu": {
        "overview": "http://localhost:8000/api/user/overview/Streamtest1",
        "match": "http://localhost:8000/api/user/match/Streamtest1",
        "statistic": "http://localhost:8000/api/user/statistic/Streamtest1"
    },
    "data": [
        {
            "game_id": "501085427",
            "game_name": "PUBG MOBILE",
            "game_banner": "https://cmfg.streamgaming.id/logo/game/z7Y9mf8H-Gtg92INy7vUtcqLeQ",
            "game_logo": "https://cmfg.streamgaming.id/logo/game/z7Y9wv9f_mNkoWMFy7zUtcqLeQ",
            "system": null,
            "is_multisystem": true,
            "statistic": null,
            "statistic_multisystem": {
                "bracket": {
                    "jumlah_kill": 0,
                    "death": 0,
                    "assist": 0,
                    "total_match": 0,
                    "total_win": 0,
                    "winrate": "0%"
                },
                "leaderboard": {
                    "jumlah_kill": 61,
                    "total_match": 29,
                    "total_win": 16,
                    "winrate": "55.2%"
                }
            }
        },
        {
            "game_id": "1086187021",
            "game_name": "MOBILE LEGEND",
            "game_banner": "https://cmfg.streamgaming.id/logo/game/z7Y9mf8H-GIx9zFZyOzUtcqLeQ",
            "game_logo": "https://cmfg.streamgaming.id/logo/game/z7Y9wv9f_241qmIKnOvUtcqLeQ",
            "system": null,
            "is_multisystem": true,
            "statistic": null,
            "statistic_multisystem": {
                "bracket": {
                    "jumlah_kill": 0,
                    "death": 0,
                    "assist": 0,
                    "total_match": 4,
                    "total_win": 3,
                    "winrate": "75%"
                },
                "leaderboard": null
            }
        },
        {
            "game_id": "604500562",
            "game_name": "Dota",
            "game_banner": "https://cmfg.streamgaming.id/logo/game/z7Y9mf8H-Do1oGULnrnUtcqLeQ",
            "game_logo": "https://cmfg.streamgaming.id/logo/game/z7Y9wv9f_jlgpTYMkuPUtcqLeQ",
            "system": "bracket",
            "is_multisystem": false,
            "statistic": {
                "jumlah_kill": 0,
                "death": 0,
                "assist": 0,
                "total_match": 0,
                "total_win": 0,
                "winrate": "0%"
            },
            "statistic_multisystem": {
                "bracket": null
            }
        },
        {
            "game_id": "179415089",
            "game_name": "Valorant",
            "game_banner": "https://stream-gaming.s3.ap-southeast-1.amazonaws.com/alpha-dev/public/content/game/5fb2a3e99572d.png",
            "game_logo": "https://stream-gaming.s3.ap-southeast-1.amazonaws.com/alpha-dev/public/content/game/5f9290747bd5d.png",
            "system": "bracket",
            "is_multisystem": false,
            "statistic": {
                "jumlah_kill": 0,
                "death": 0,
                "assist": 0,
                "total_match": 0,
                "total_win": 0,
                "winrate": "0%"
            },
            "statistic_multisystem": {
                "bracket": null
            }
        },
        {
            "game_id": "1288638409",
            "game_name": "Apex Legends",
            "game_banner": "https://cmfg.streamgaming.id/logo/game/z7Y9mf8H-GMx92YNzuzUtcqLeQ",
            "game_logo": "https://cmfg.streamgaming.id/logo/game/z7Y9wv9f-GtuqzUNmrzUtcqLeQ",
            "system": "leaderboard",
            "is_multisystem": false,
            "statistic": null,
            "statistic_multisystem": {
                "leaderboard": null
            }
        },
        {
            "game_id": "2009913025",
            "game_name": "Free Fire",
            "game_banner": "https://cmfg.streamgaming.id/logo/game/z7Y9mf8H-DlkojYLkr_UtcqLeQ",
            "game_logo": "https://cmfg.streamgaming.id/logo/game/z7Y9wv9f-GhuoW8EnrnUtcqLeQ",
            "system": "leaderboard",
            "is_multisystem": false,
            "statistic": null,
            "statistic_multisystem": {
                "leaderboard": null
            }
        },
        {
            "game_id": "1244126094",
            "game_name": "Among US",
            "game_banner": "https://cmfg.streamgaming.id/logo/game/z7Y9mf8H-GJg92APmrnUtcqLeQ",
            "game_logo": "https://cmfg.streamgaming.id/logo/game/z7Y9wv9f_zkyo2NZy-7UtcqLeQ",
            "system": "leaderboard",
            "is_multisystem": false,
            "statistic": null,
            "statistic_multisystem": {
                "leaderboard": null
            }
        },
        {
            "game_id": "917709564",
            "game_name": "Tekken 7",
            "game_banner": "https://cmfg.streamgaming.id/logo/game/z7Y9mf8H_2NjojEKmOnUtcqLeQ",
            "game_logo": "https://cmfg.streamgaming.id/logo/game/z7Y9wv9f_2luq2FdmLjUtcqLeQ",
            "system": "bracket",
            "is_multisystem": false,
            "statistic": {
                "jumlah_kill": 0,
                "death": 0,
                "assist": 0,
                "total_match": 0,
                "total_win": 0,
                "winrate": "0%"
            },
            "statistic_multisystem": {
                "bracket": null
            }
        }
    ]
}




